Data Mining and Analysis using rtweet package - Data Curious
…
We use unnest_tokens() from tidytxt package
to convert any text from upper to lower case, remove punctuation, add unique ID. We clean the data, convert all the text to lower case and remove stop words

censusKE %>%
  dplyr::select(text) %>%
  unnest_tokens(Words, text) %>%
  filter(!Words %in% stop_words$word) %>%
  count(Words, sort=TRUE)

## # A tibble: 83 x 2
##    Words               n
##    <chr>           <int>
##  1 censuskenya2019     9
##  2 https               3
##  3 t.co                3
##  4 business            2
##  5 family              2
##  6 fredmatiangi        2
##  7 government          2
##  8 kenyans             2
##  9 mum                 2
## 10 results             2
## # ... with 73 more rows
…
